%YAML 1.1
%TAG !u! tag:unity3d.com,2011:
--- !u!1045 &1
EditorBuildSettings:
  m_ObjectHideFlags: 0
  serializedVersion: 2
  m_Scenes:
  - enabled: 0
    path: Assets/FirstScene.unity
  - enabled: 0
    path: Assets/Presentation.unity
  - enabled: 0
    path: Assets/Setup.unity
  - enabled: 1
    path: Assets/Application.unity
